module github.com/liquanhui-99/lr

go 1.19

require (
	github.com/stretchr/testify v1.8.4
	go.opentelemetry.io/otel/trace v1.16.0
)

require (
	github.com/davecgh/go-spew v1.1.1 // indirect
	github.com/pmezard/go-difflib v1.0.0 // indirect
	go.opentelemetry.io/otel v1.16.0 // indirect
	gopkg.in/yaml.v3 v3.0.1 // indirect
)
